[
{ "id": 1, "name": "Brindaki Empire" },
{ "id": 2, "name": "Graal Kingdoms" },
{ "id": 3, "name": "Human Commonwealth" },
{ "id": 4, "name": "Jain Khanate" },
{ "id": 5, "name": "Kili Republic" },
{ "id": 6, "name": "Loran Imperium" },
{ "id": 7, "name": "Senorian Federation" },
{ "id": 8, "name": "Tirelon Theocracy" }
]
